^C:\USERS\ADMINISTRATOR\DESKTOP\PROJET REAL\L3PPIL\PROJECT1\PROJECT1\MAIN.CPP
C:\USERS\ADMINISTRATOR\DESKTOP\PROJET REAL\L3PPIL\PROJECT1\PROJECT1\X64\DEBUG\VC142.PDB
C:\USERS\ADMINISTRATOR\DESKTOP\PROJET REAL\L3PPIL\PROJECT1\PROJECT1\X64\DEBUG\VC142.IDB
C:\USERS\ADMINISTRATOR\DESKTOP\PROJET REAL\L3PPIL\PROJECT1\PROJECT1\X64\DEBUG\MAIN.OBJ
^C:\USERS\ADMINISTRATOR\DESKTOP\PROJET TANG XU\L3PPIL\PROJECT1\PROJECT1\FORME\CERCLE.CPP|C:\USERS\ADMINISTRATOR\DESKTOP\PROJET TANG XU\L3PPIL\PROJECT1\PROJECT1\FORME\COMPOSANT.CPP|C:\USERS\ADMINISTRATOR\DESKTOP\PROJET TANG XU\L3PPIL\PROJECT1\PROJECT1\FORME\FORME.CPP|C:\USERS\ADMINISTRATOR\DESKTOP\PROJET TANG XU\L3PPIL\PROJECT1\PROJECT1\FORME\POLYGONE.CPP|C:\USERS\ADMINISTRATOR\DESKTOP\PROJET TANG XU\L3PPIL\PROJECT1\PROJECT1\FORME\SEGMENT.CPP|C:\USERS\ADMINISTRATOR\DESKTOP\PROJET TANG XU\L3PPIL\PROJECT1\PROJECT1\MAIN.CPP|C:\USERS\ADMINISTRATOR\DESKTOP\PROJET TANG XU\L3PPIL\PROJECT1\PROJECT1\TEST_DESSIN.H|C:\USERS\ADMINISTRATOR\DESKTOP\PROJET TANG XU\L3PPIL\PROJECT1\PROJECT1\VISITOR\CLIENT_DESSIN.CPP|C:\USERS\ADMINISTRATOR\DESKTOP\PROJET TANG XU\L3PPIL\PROJECT1\PROJECT1\VISITOR\SINGLETON.CPP|C:\USERS\ADMINISTRATOR\DESKTOP\PROJET TANG XU\L3PPIL\PROJECT1\PROJECT1\VISITOR\VISITEUR_DESIGNER.CPP|C:\USERS\ADMINISTRATOR\DESKTOP\PROJET TANG XU\L3PPIL\PROJECT1\PROJECT1\VISITOR\VISITEUR_HOMOTHETIE.CPP|C:\USERS\ADMINISTRATOR\DESKTOP\PROJET TANG XU\L3PPIL\PROJECT1\PROJECT1\VISITOR\VISITEUR_ROTATION.CPP|C:\USERS\ADMINISTRATOR\DESKTOP\PROJET TANG XU\L3PPIL\PROJECT1\PROJECT1\VISITOR\VISITEUR_SAUVEGARDER.CPP|C:\USERS\ADMINISTRATOR\DESKTOP\PROJET TANG XU\L3PPIL\PROJECT1\PROJECT1\VISITOR\VISITEUR_TRANSLATION.CPP
C:\USERS\ADMINISTRATOR\DESKTOP\PROJET TANG XU\L3PPIL\PROJECT1\PROJECT1\X64\DEBUG\VC142.PDB
C:\USERS\ADMINISTRATOR\DESKTOP\PROJET TANG XU\L3PPIL\PROJECT1\PROJECT1\X64\DEBUG\VC142.IDB
C:\USERS\ADMINISTRATOR\DESKTOP\PROJET TANG XU\L3PPIL\PROJECT1\PROJECT1\X64\DEBUG\TEST_DESSIN.OBJ
C:\USERS\ADMINISTRATOR\DESKTOP\PROJET TANG XU\L3PPIL\PROJECT1\PROJECT1\X64\DEBUG\MAIN.OBJ
C:\USERS\ADMINISTRATOR\DESKTOP\PROJET TANG XU\L3PPIL\PROJECT1\PROJECT1\X64\DEBUG\VISITEUR_TRANSLATION.OBJ
C:\USERS\ADMINISTRATOR\DESKTOP\PROJET TANG XU\L3PPIL\PROJECT1\PROJECT1\X64\DEBUG\VISITEUR_SAUVEGARDER.OBJ
C:\USERS\ADMINISTRATOR\DESKTOP\PROJET TANG XU\L3PPIL\PROJECT1\PROJECT1\X64\DEBUG\VISITEUR_ROTATION.OBJ
C:\USERS\ADMINISTRATOR\DESKTOP\PROJET TANG XU\L3PPIL\PROJECT1\PROJECT1\X64\DEBUG\VISITEUR_HOMOTHETIE.OBJ
C:\USERS\ADMINISTRATOR\DESKTOP\PROJET TANG XU\L3PPIL\PROJECT1\PROJECT1\X64\DEBUG\VISITEUR_DESIGNER.OBJ
C:\USERS\ADMINISTRATOR\DESKTOP\PROJET TANG XU\L3PPIL\PROJECT1\PROJECT1\X64\DEBUG\SINGLETON.OBJ
C:\USERS\ADMINISTRATOR\DESKTOP\PROJET TANG XU\L3PPIL\PROJECT1\PROJECT1\X64\DEBUG\CLIENT_DESSIN.OBJ
C:\USERS\ADMINISTRATOR\DESKTOP\PROJET TANG XU\L3PPIL\PROJECT1\PROJECT1\X64\DEBUG\POLYGONE.OBJ
C:\USERS\ADMINISTRATOR\DESKTOP\PROJET TANG XU\L3PPIL\PROJECT1\PROJECT1\X64\DEBUG\SEGMENT.OBJ
C:\USERS\ADMINISTRATOR\DESKTOP\PROJET TANG XU\L3PPIL\PROJECT1\PROJECT1\X64\DEBUG\FORME.OBJ
C:\USERS\ADMINISTRATOR\DESKTOP\PROJET TANG XU\L3PPIL\PROJECT1\PROJECT1\X64\DEBUG\COMPOSANT.OBJ
C:\USERS\ADMINISTRATOR\DESKTOP\PROJET TANG XU\L3PPIL\PROJECT1\PROJECT1\X64\DEBUG\CERCLE.OBJ
^C:\USERS\ADMINISTRATOR\DESKTOP\PROJET TANG XU\L3PPIL\PROJECT1\PROJECT1\VISITOR\CLIENT_DESSIN.CPP
C:\USERS\ADMINISTRATOR\DESKTOP\PROJET TANG XU\L3PPIL\PROJECT1\PROJECT1\X64\DEBUG\VC142.PDB
^C:\USERS\ADMINISTRATOR\DESKTOP\PROJET TANG XU\L3PPIL\PROJECT1\PROJECT1\VISITOR\SINGLETON.CPP
C:\USERS\ADMINISTRATOR\DESKTOP\PROJET TANG XU\L3PPIL\PROJECT1\PROJECT1\X64\DEBUG\VC142.PDB
^C:\USERS\ADMINISTRATOR\DESKTOP\PROJET TANG XU\L3PPIL\PROJECT1\PROJECT1\FORME\CERCLE.CPP|C:\USERS\ADMINISTRATOR\DESKTOP\PROJET TANG XU\L3PPIL\PROJECT1\PROJECT1\FORME\COMPOSANT.CPP|C:\USERS\ADMINISTRATOR\DESKTOP\PROJET TANG XU\L3PPIL\PROJECT1\PROJECT1\FORME\FORME.CPP|C:\USERS\ADMINISTRATOR\DESKTOP\PROJET TANG XU\L3PPIL\PROJECT1\PROJECT1\FORME\POLYGONE.CPP|C:\USERS\ADMINISTRATOR\DESKTOP\PROJET TANG XU\L3PPIL\PROJECT1\PROJECT1\FORME\SEGMENT.CPP|C:\USERS\ADMINISTRATOR\DESKTOP\PROJET TANG XU\L3PPIL\PROJECT1\PROJECT1\MAIN.CPP|C:\USERS\ADMINISTRATOR\DESKTOP\PROJET TANG XU\L3PPIL\PROJECT1\PROJECT1\TEST_DESSIN.H|C:\USERS\ADMINISTRATOR\DESKTOP\PROJET TANG XU\L3PPIL\PROJECT1\PROJECT1\VISITOR\VISITEUR_DESIGNER.CPP|C:\USERS\ADMINISTRATOR\DESKTOP\PROJET TANG XU\L3PPIL\PROJECT1\PROJECT1\VISITOR\VISITEUR_HOMOTHETIE.CPP|C:\USERS\ADMINISTRATOR\DESKTOP\PROJET TANG XU\L3PPIL\PROJECT1\PROJECT1\VISITOR\VISITEUR_ROTATION.CPP|C:\USERS\ADMINISTRATOR\DESKTOP\PROJET TANG XU\L3PPIL\PROJECT1\PROJECT1\VISITOR\VISITEUR_SAUVEGARDER.CPP|C:\USERS\ADMINISTRATOR\DESKTOP\PROJET TANG XU\L3PPIL\PROJECT1\PROJECT1\VISITOR\VISITEUR_TRANSLATION.CPP
C:\USERS\ADMINISTRATOR\DESKTOP\PROJET TANG XU\L3PPIL\PROJECT1\PROJECT1\X64\DEBUG\VC142.PDB
C:\USERS\ADMINISTRATOR\DESKTOP\PROJET TANG XU\L3PPIL\PROJECT1\PROJECT1\X64\DEBUG\VC142.IDB
C:\USERS\ADMINISTRATOR\DESKTOP\PROJET TANG XU\L3PPIL\PROJECT1\PROJECT1\X64\DEBUG\TEST_DESSIN.OBJ
C:\USERS\ADMINISTRATOR\DESKTOP\PROJET TANG XU\L3PPIL\PROJECT1\PROJECT1\X64\DEBUG\MAIN.OBJ
C:\USERS\ADMINISTRATOR\DESKTOP\PROJET TANG XU\L3PPIL\PROJECT1\PROJECT1\X64\DEBUG\VISITEUR_TRANSLATION.OBJ
C:\USERS\ADMINISTRATOR\DESKTOP\PROJET TANG XU\L3PPIL\PROJECT1\PROJECT1\X64\DEBUG\VISITEUR_SAUVEGARDER.OBJ
C:\USERS\ADMINISTRATOR\DESKTOP\PROJET TANG XU\L3PPIL\PROJECT1\PROJECT1\X64\DEBUG\VISITEUR_ROTATION.OBJ
C:\USERS\ADMINISTRATOR\DESKTOP\PROJET TANG XU\L3PPIL\PROJECT1\PROJECT1\X64\DEBUG\VISITEUR_HOMOTHETIE.OBJ
C:\USERS\ADMINISTRATOR\DESKTOP\PROJET TANG XU\L3PPIL\PROJECT1\PROJECT1\X64\DEBUG\VISITEUR_DESIGNER.OBJ
C:\USERS\ADMINISTRATOR\DESKTOP\PROJET TANG XU\L3PPIL\PROJECT1\PROJECT1\X64\DEBUG\POLYGONE.OBJ
C:\USERS\ADMINISTRATOR\DESKTOP\PROJET TANG XU\L3PPIL\PROJECT1\PROJECT1\X64\DEBUG\SEGMENT.OBJ
C:\USERS\ADMINISTRATOR\DESKTOP\PROJET TANG XU\L3PPIL\PROJECT1\PROJECT1\X64\DEBUG\FORME.OBJ
C:\USERS\ADMINISTRATOR\DESKTOP\PROJET TANG XU\L3PPIL\PROJECT1\PROJECT1\X64\DEBUG\COMPOSANT.OBJ
C:\USERS\ADMINISTRATOR\DESKTOP\PROJET TANG XU\L3PPIL\PROJECT1\PROJECT1\X64\DEBUG\CERCLE.OBJ
^C:\USERS\ADMINISTRATOR\DESKTOP\PROJET TANG XU\L3PPIL\PROJECT1\PROJECT1\FORME\CERCLE.CPP
C:\USERS\ADMINISTRATOR\DESKTOP\PROJET TANG XU\L3PPIL\PROJECT1\PROJECT1\X64\DEBUG\VC142.PDB
^C:\USERS\ADMINISTRATOR\DESKTOP\PROJET TANG XU\L3PPIL\PROJECT1\PROJECT1\FORME\COMPOSANT.CPP
C:\USERS\ADMINISTRATOR\DESKTOP\PROJET TANG XU\L3PPIL\PROJECT1\PROJECT1\X64\DEBUG\VC142.PDB
^C:\USERS\ADMINISTRATOR\DESKTOP\PROJET TANG XU\L3PPIL\PROJECT1\PROJECT1\FORME\FORME.CPP
C:\USERS\ADMINISTRATOR\DESKTOP\PROJET TANG XU\L3PPIL\PROJECT1\PROJECT1\X64\DEBUG\VC142.PDB
^C:\USERS\ADMINISTRATOR\DESKTOP\PROJET TANG XU\L3PPIL\PROJECT1\PROJECT1\FORME\SEGMENT.CPP
C:\USERS\ADMINISTRATOR\DESKTOP\PROJET TANG XU\L3PPIL\PROJECT1\PROJECT1\X64\DEBUG\VC142.PDB
^C:\USERS\ADMINISTRATOR\DESKTOP\PROJET TANG XU\L3PPIL\PROJECT1\PROJECT1\FORME\POLYGONE.CPP
C:\USERS\ADMINISTRATOR\DESKTOP\PROJET TANG XU\L3PPIL\PROJECT1\PROJECT1\X64\DEBUG\VC142.PDB
^C:\USERS\ADMINISTRATOR\DESKTOP\PROJET TANG XU\L3PPIL\PROJECT1\PROJECT1\VISITOR\VISITEUR_DESIGNER.CPP
C:\USERS\ADMINISTRATOR\DESKTOP\PROJET TANG XU\L3PPIL\PROJECT1\PROJECT1\X64\DEBUG\VC142.PDB
^C:\USERS\ADMINISTRATOR\DESKTOP\PROJET TANG XU\L3PPIL\PROJECT1\PROJECT1\VISITOR\VISITEUR_HOMOTHETIE.CPP
C:\USERS\ADMINISTRATOR\DESKTOP\PROJET TANG XU\L3PPIL\PROJECT1\PROJECT1\X64\DEBUG\VC142.PDB
^C:\USERS\ADMINISTRATOR\DESKTOP\PROJET TANG XU\L3PPIL\PROJECT1\PROJECT1\VISITOR\VISITEUR_ROTATION.CPP
C:\USERS\ADMINISTRATOR\DESKTOP\PROJET TANG XU\L3PPIL\PROJECT1\PROJECT1\X64\DEBUG\VC142.PDB
^C:\USERS\ADMINISTRATOR\DESKTOP\PROJET TANG XU\L3PPIL\PROJECT1\PROJECT1\VISITOR\VISITEUR_SAUVEGARDER.CPP
C:\USERS\ADMINISTRATOR\DESKTOP\PROJET TANG XU\L3PPIL\PROJECT1\PROJECT1\X64\DEBUG\VC142.PDB
^C:\USERS\ADMINISTRATOR\DESKTOP\PROJET TANG XU\L3PPIL\PROJECT1\PROJECT1\VISITOR\VISITEUR_TRANSLATION.CPP
C:\USERS\ADMINISTRATOR\DESKTOP\PROJET TANG XU\L3PPIL\PROJECT1\PROJECT1\X64\DEBUG\VC142.PDB
^C:\USERS\ADMINISTRATOR\DESKTOP\PROJET TANG XU\L3PPIL\PROJECT1\PROJECT1\MAIN.CPP
C:\USERS\ADMINISTRATOR\DESKTOP\PROJET TANG XU\L3PPIL\PROJECT1\PROJECT1\X64\DEBUG\VC142.PDB
^C:\USERS\ADMINISTRATOR\DESKTOP\PROJET TANG XU\L3PPIL\PROJECT1\PROJECT1\TEST_DESSIN.H
C:\USERS\ADMINISTRATOR\DESKTOP\PROJET TANG XU\L3PPIL\PROJECT1\PROJECT1\X64\DEBUG\VC142.PDB
